{
  "configVersion": 2,
  "packages": [
    {
      "name": "async",
      "rootUri": "file:///C:/Users/toufi/AppData/Local/Pub/Cache/hosted/pub.dev/async-2.11.0",
      "packageUri": "lib/",
      "languageVersion": "2.18"
    },
    {
      "name": "boolean_selector",
      "rootUri": "file:///C:/Users/toufi/AppData/Local/Pub/Cache/hosted/pub.dev/boolean_selector-2.1.1",
      "packageUri": "lib/",
      "languageVersion": "2.17"
    },
    {
      "name": "characters",
      "rootUri": "file:///C:/Users/toufi/AppData/Local/Pub/Cache/hosted/pub.dev/characters-1.3.0",
      "packageUri": "lib/",
      "languageVersion": "2.12"
    },
    {
      "name": "clock",
      "rootUri": "file:///C:/Users/toufi/AppData/Local/Pub/Cache/hosted/pub.dev/clock-1.1.1",
      "packageUri": "lib/",
      "languageVersion": "2.12"
    },
    {
      "name": "cmed_jitsi",
      "rootUri": "file:///C:/Users/toufi/AppData/Local/Pub/Cache/git/cmed_jitsi-47f4bffecceb0e0faa3297ea15edb9bf909abc38/",
      "packageUri": "lib/",
      "languageVersion": "2.12"
    },
    {
      "name": "collection",
      "rootUri": "file:///C:/Users/toufi/AppData/Local/Pub/Cache/hosted/pub.dev/collection-1.17.1",
      "packageUri": "lib/",
      "languageVersion": "2.18"
    },
    {
      "name": "fake_async",
      "rootUri": "file:///C:/Users/toufi/AppData/Local/Pub/Cache/hosted/pub.dev/fake_async-1.3.1",
      "packageUri": "lib/",
      "languageVersion": "2.12"
    },
    {
      "name": "flutter",
      "rootUri": "file:///D:/flutter/sdk305/packages/flutter",
      "packageUri": "lib/",
      "languageVersion": "3.0"
    },
    {
      "name": "flutter_lints",
      "rootUri": "file:///C:/Users/toufi/AppData/Local/Pub/Cache/hosted/pub.dev/flutter_lints-1.0.4",
      "packageUri": "lib/",
      "languageVersion": "2.12"
    },
    {
      "name": "flutter_test",
      "rootUri": "file:///D:/flutter/sdk305/packages/flutter_test",
      "packageUri": "lib/",
      "languageVersion": "3.0"
    },
    {
      "name": "js",
      "rootUri": "file:///C:/Users/toufi/AppData/Local/Pub/Cache/hosted/pub.dev/js-0.6.7",
      "packageUri": "lib/",
      "languageVersion": "2.19"
    },
    {
      "name": "lints",
      "rootUri": "file:///C:/Users/toufi/AppData/Local/Pub/Cache/hosted/pub.dev/lints-1.0.1",
      "packageUri": "lib/",
      "languageVersion": "2.12"
    },
    {
      "name": "matcher",
      "rootUri": "file:///C:/Users/toufi/AppData/Local/Pub/Cache/hosted/pub.dev/matcher-0.12.15",
      "packageUri": "lib/",
      "languageVersion": "2.18"
    },
    {
      "name": "material_color_utilities",
      "rootUri": "file:///C:/Users/toufi/AppData/Local/Pub/Cache/hosted/pub.dev/material_color_utilities-0.2.0",
      "packageUri": "lib/",
      "languageVersion": "2.13"
    },
    {
      "name": "meta",
      "rootUri": "file:///C:/Users/toufi/AppData/Local/Pub/Cache/hosted/pub.dev/meta-1.9.1",
      "packageUri": "lib/",
      "languageVersion": "2.12"
    },
    {
      "name": "path",
      "rootUri": "file:///C:/Users/toufi/AppData/Local/Pub/Cache/hosted/pub.dev/path-1.8.3",
      "packageUri": "lib/",
      "languageVersion": "2.12"
    },
    {
      "name": "plugin_platform_interface",
      "rootUri": "file:///C:/Users/toufi/AppData/Local/Pub/Cache/hosted/pub.dev/plugin_platform_interface-2.1.4",
      "packageUri": "lib/",
      "languageVersion": "2.17"
    },
    {
      "name": "sky_engine",
      "rootUri": "file:///D:/flutter/sdk305/bin/cache/pkg/sky_engine",
      "packageUri": "lib/",
      "languageVersion": "3.0"
    },
    {
      "name": "source_span",
      "rootUri": "file:///C:/Users/toufi/AppData/Local/Pub/Cache/hosted/pub.dev/source_span-1.9.1",
      "packageUri": "lib/",
      "languageVersion": "2.14"
    },
    {
      "name": "stack_trace",
      "rootUri": "file:///C:/Users/toufi/AppData/Local/Pub/Cache/hosted/pub.dev/stack_trace-1.11.0",
      "packageUri": "lib/",
      "languageVersion": "2.18"
    },
    {
      "name": "stream_channel",
      "rootUri": "file:///C:/Users/toufi/AppData/Local/Pub/Cache/hosted/pub.dev/stream_channel-2.1.1",
      "packageUri": "lib/",
      "languageVersion": "2.14"
    },
    {
      "name": "string_scanner",
      "rootUri": "file:///C:/Users/toufi/AppData/Local/Pub/Cache/hosted/pub.dev/string_scanner-1.2.0",
      "packageUri": "lib/",
      "languageVersion": "2.18"
    },
    {
      "name": "term_glyph",
      "rootUri": "file:///C:/Users/toufi/AppData/Local/Pub/Cache/hosted/pub.dev/term_glyph-1.2.1",
      "packageUri": "lib/",
      "languageVersion": "2.12"
    },
    {
      "name": "test_api",
      "rootUri": "file:///C:/Users/toufi/AppData/Local/Pub/Cache/hosted/pub.dev/test_api-0.5.1",
      "packageUri": "lib/",
      "languageVersion": "2.18"
    },
    {
      "name": "vector_math",
      "rootUri": "file:///C:/Users/toufi/AppData/Local/Pub/Cache/hosted/pub.dev/vector_math-2.1.4",
      "packageUri": "lib/",
      "languageVersion": "2.14"
    },
    {
      "name": "cmed_jitsi_flutter",
      "rootUri": "../",
      "packageUri": "lib/",
      "languageVersion": "2.12"
    }
  ],
  "generated": "2023-05-28T04:55:50.529846Z",
  "generator": "pub",
  "generatorVersion": "3.0.2"
}
